{
    "lastModified": 1467901442000,
    "name": "The Renegades",
    "realm": "Draenor",
    "battlegroup": "Cyclone",
    "level": 25,
    "side": 0,
    "achievementPoints": 1490,
    "achievements": {
        "achievementsCompleted": [4860, 4861, 4912, 4913, 4943, 4944, 4945, 4946, 4947, 4948, 4985, 4986, 4987, 4988, 4989, 4997, 5009, 5012, 5024, 5027, 5029, 5030, 5031, 5035, 5036, 5037, 5038, 5039, 5040, 5041, 5042, 5044, 5046, 5047, 5048, 5049, 5051, 5053, 5054, 5055, 5067, 5068, 5069, 5070, 5071, 5072, 5073, 5074, 5075, 5076, 5077, 5078, 5079, 5080, 5081, 5082, 5095, 5096, 5098, 5099, 5101, 5102, 5103, 5104, 5105, 5113, 5126, 5127, 5129, 5130, 5131, 5134, 5135, 5136, 5137, 5138, 5139, 5140, 5141, 5142, 5143, 5144, 5151, 5153, 5156, 5159, 5167, 5168, 5169, 5170, 5171, 5172, 5185, 5186, 5187, 5188, 5196, 5201, 5239, 5362, 5420, 5421, 5422, 5459, 5460, 5465, 5467, 5780, 5781, 5782, 5785, 5812, 5840, 6120, 6532, 6626, 6644, 6666, 6668, 6669, 6670, 6675, 6676, 6677, 6681, 6682, 6700, 6702, 6764, 6766, 6767, 6768, 6769, 6770, 6771, 6772, 7434, 7447, 7448, 8510, 8511, 8708, 9369, 9370, 9371, 9372, 9373, 9374, 9375, 9376, 9388, 10175],
        "achievementsCompletedTimestamp": [1403393615000, 1403414015000, 1403453107000, 1459660942000, 1385259453000, 1398003937000, 1401096494000, 1402285436000, 1465064602000, 1433457321000, 1435196994000, 1435199467000, 1435197549000, 1435199467000, 1419095897000, 1461970202000, 1437857126000, 1457488330000, 1461973114000, 1444272101000, 1467751598000, 1434652682000, 1399180095000, 1419262200000, 1465159116000, 1400180536000, 1402444578000, 1449974381000, 1401926968000, 1450247013000, 1467048488000, 1400897135000, 1400902418000, 1425954361000, 1425977138000, 1425953365000, 1426063315000, 1425975839000, 1401340563000, 1425978591000, 1456085997000, 1456086462000, 1449804423000, 1456087473000, 1449802906000, 1456089542000, 1457488330000, 1401958537000, 1457486557000, 1449807336000, 1457485919000, 1457484210000, 1457485346000, 1457484995000, 1449801116000, 1401957627000, 1454891353000, 1454889162000, 1454894906000, 1454892249000, 1454892779000, 1454893591000, 1458422542000, 1460438998000, 1454890974000, 1458344889000, 1402506762000, 1462338216000, 1403431000000, 1403431000000, 1459094988000, 1401928872000, 1401939149000, 1401900540000, 1401923472000, 1401902784000, 1401930117000, 1401903934000, 1401925052000, 1401926968000, 1401939149000, 1457883278000, 1450112637000, 1418084355000, 1451086551000, 1444576528000, 1384572759000, 1384432123000, 1383989553000, 1383991486000, 1383988530000, 1384433780000, 1420602827000, 1437857126000, 1458863551000, 1465229478000, 1419266510000, 1412915186000, 1436380084000, 1383438977000, 1465003323000, 1417765691000, 1464556233000, 1401304444000, 1440200941000, 1453593088000, 1460081112000, 1400557962000, 1433647099000, 1457154052000, 1448767715000, 1439469446000, 1455645604000, 1460684637000, 1399180095000, 1403394304000, 1454784485000, 1400792932000, 1463363601000, 1463361883000, 1465522637000, 1465524413000, 1465522637000, 1466221476000, 1401371916000, 1466221476000, 1453593088000, 1420225848000, 1401257878000, 1401341342000, 1400793979000, 1401371916000, 1401370999000, 1401256968000, 1401340563000, 1401339677000, 1400899538000, 1456032715000, 1401837521000, 1466832615000, 1466832615000, 1403414015000, 1448765965000, 1454730787000, 1448772419000, 1434659194000, 1448769793000, 1448767715000, 1434603068000, 1453525254000, 1454730787000, 1464500145000],
        "criteria": [2020, 2048, 2049, 4093, 4737, 4741, 4742, 4743, 4750, 4751, 4759, 4761, 4764, 4765, 4766, 4767, 4984, 4991, 5020, 5021, 5022, 5029, 5031, 5039, 5333, 5334, 5335, 5336, 12698, 12911, 13671, 13757, 13829, 13832, 13833, 13834, 13835, 13864, 13865, 13866, 13867, 13868, 13869, 13870, 13871, 13872, 13873, 13874, 13878, 13882, 13883, 13884, 13885, 13886, 13887, 13888, 13891, 13892, 13893, 13894, 13896, 13898, 13899, 13900, 14013, 14022, 14023, 14024, 14025, 14026, 14027, 14028, 14029, 14030, 14031, 14185, 14203, 14204, 14205, 14206, 14207, 14208, 14209, 14210, 14211, 14212, 14213, 14214, 14215, 14216, 14217, 14218, 14219, 14220, 14223, 14224, 14226, 14227, 14228, 14229, 14230, 14260, 14261, 14281, 14282, 14283, 14284, 14317, 14320, 14321, 14323, 14329, 14331, 14334, 14337, 14341, 14342, 14354, 14355, 14357, 14359, 14362, 14363, 14364, 14365, 14366, 14369, 14370, 14371, 14387, 14389, 14390, 14392, 14393, 14394, 14396, 14404, 14417, 14437, 14439, 14477, 14478, 14479, 14480, 14481, 14483, 14484, 14485, 14486, 14488, 14491, 14492, 14493, 14494, 14495, 14496, 14497, 14498, 14499, 14500, 14517, 14518, 14520, 14521, 14537, 14538, 14539, 14540, 14541, 14542, 14543, 14544, 14545, 14546, 14547, 14548, 14549, 14550, 14551, 14552, 14553, 14554, 14555, 14556, 14557, 14559, 14560, 14561, 14562, 14563, 14564, 14565, 14566, 14567, 14568, 14569, 14570, 14571, 14572, 14574, 14575, 14576, 14577, 14580, 14588, 14590, 14591, 14592, 14593, 14596, 14648, 14649, 14650, 14651, 14655, 14656, 14657, 14658, 14659, 14660, 14661, 14662, 14663, 14664, 14665, 14666, 14667, 14668, 14669, 14670, 14671, 14672, 14673, 14674, 14675, 14677, 14678, 14679, 14680, 14681, 14682, 14683, 14684, 14685, 14686, 14687, 14688, 14689, 14690, 14691, 14692, 14693, 14694, 14695, 14696, 14697, 14698, 14699, 14700, 14701, 14702, 14703, 14704, 14705, 14706, 14760, 14764, 14767, 14769, 14770, 14794, 14805, 14810, 14811, 14812, 15475, 15490, 15690, 15691, 15703, 15705, 15946, 16190, 17004, 17007, 17009, 17453, 17456, 17459, 17462, 17467, 17470, 17472, 17475, 17480, 17485, 17486, 17502, 17505, 17507, 17510, 17517, 17519, 17522, 17531, 17718, 17720, 17909, 17911, 17913, 17915, 17916, 17919, 17921, 17922, 17924, 17925, 17926, 17928, 17929, 17930, 17932, 17934, 17935, 17936, 17937, 17938, 17939, 17940, 17941, 17942, 17943, 17944, 17946, 17947, 17948, 17949, 17950, 17951, 17954, 17955, 17956, 17961, 17962, 17963, 17964, 17965, 17966, 17968, 17969, 17970, 18475, 19114, 19214, 19279, 19285, 19286, 19287, 19288, 19289, 19290, 19291, 19292, 19293, 19294, 19295, 19303, 19454, 19455, 19457, 19458, 19459, 19462, 19476, 19483, 19485, 19486, 19487, 19488, 19489, 19490, 19491, 19492, 19493, 19496, 19498, 19541, 19542, 19543, 19544, 19630, 19653, 19678, 19681, 19682, 19685, 19686, 19687, 19688, 19689, 19690, 19691, 19692, 19693, 19727, 19728, 19729, 19731, 19732, 19733, 19734, 19736, 20431, 20764, 20765, 20767, 20768, 20769, 20770, 20772, 20987, 21144, 21145, 21146, 21186, 21188, 21189, 21191, 21192, 21193, 21194, 21195, 22117, 22118, 22119, 22120, 22121, 22241, 22255, 22256, 22384, 23220, 23713, 23714, 23715, 23716, 23717, 23718, 23929, 25509, 25510, 25511, 25512, 25513, 25514, 25515, 25516, 25517, 25519, 25520, 25521, 25523, 25524, 25525, 25527, 27881, 28556],
        "criteriaQuantity": [42999, 42999, 42999, 14337236673, 42999, 42999, 42999, 42999, 42999, 42999, 42999, 42999, 42999, 42999, 42999, 42999, 20415, 14600, 4, 31, 1, 1, 120, 3, 42999, 42999, 42999, 42999, 1, 42999, 42999, 1352027939, 1, 1, 1, 1, 1, 700, 700, 700, 700, 700, 700, 700, 700, 700, 700, 700, 25, 1, 1, 1, 1, 1, 1, 1, 1, 1, 1, 1, 1, 1, 1, 1, 1, 100, 100, 100, 100, 100, 100, 100, 100, 100, 100, 1, 1, 1, 1, 1, 1, 1, 1, 1, 1, 1, 1, 1, 1, 1, 1, 1, 1, 1, 1, 1, 1, 1, 1, 1, 1, 1, 1, 394901, 268351, 2500, 3551, 2, 1, 8, 1, 10, 1, 2, 1, 3, 1, 1, 1, 2, 3, 1, 1, 3, 1, 2, 1, 1, 1, 3, 3, 2, 5, 2, 2, 3, 2, 1, 4, 10, 3364, 3882, 5501, 6056, 1794, 2, 2, 2, 2, 2, 1, 1, 1, 1, 1, 1, 1, 1, 1, 89172, 42999, 42999, 42999, 42999, 100, 100, 100, 100, 100, 100, 100, 100, 100, 100, 100, 100, 100, 100, 100, 100, 100, 100, 100, 100, 100, 100, 100, 100, 94, 100, 100, 100, 100, 100, 100, 100, 100, 41, 100, 100, 100, 1, 1, 1, 1, 700, 700, 700, 700, 251485, 100, 100, 68, 100, 5530, 7607, 751, 1786, 7719, 2971, 11972, 2232, 1719, 9866, 3392, 388, 2676, 4652, 2871, 1777, 5503, 6987, 6029, 7216, 2773, 4931, 1558, 1093, 1285, 7429, 888, 824, 3033, 7688, 8942, 6126, 5536, 7079, 13929, 3846, 4797, 927, 1564, 1112, 1523, 1001, 1683, 745, 1120, 1, 1, 1, 1, 1, 1, 1, 6, 2, 1, 5, 7, 1490, 657, 1451, 16754, 120581, 1, 124, 442, 6357, 7059, 42999, 681, 231, 12, 156, 42999, 42999, 42999, 42999, 42999, 42999, 42999, 42999, 42999, 42999, 42999, 42999, 42999, 42999, 42999, 42999, 42999, 42999, 42999, 2, 1, 42999, 42999, 42999, 42999, 42999, 42999, 42000, 42999, 42011, 42999, 42999, 42835, 42999, 42999, 42999, 42999, 42999, 42999, 42999, 42999, 42999, 42999, 42999, 42999, 42999, 42999, 42999, 42999, 42999, 42999, 42999, 42999, 42999, 42999, 42999, 9084, 42999, 5741, 500, 42999, 42999, 42999, 42999, 42999, 3, 1, 100, 903, 320, 1362, 284, 2318, 389, 903, 579, 460, 2576, 283, 858, 1, 100, 100, 100, 100, 100, 100, 42999, 3, 1, 1, 1, 1, 1, 1, 1, 1, 1, 1, 1, 5330, 6831, 1440, 2763, 1, 1, 2, 1, 1, 1, 1, 1, 1, 1, 1, 1, 1, 1, 42999, 42999, 42999, 42999, 42999, 42999, 42999, 42999, 7, 3, 16, 1, 1, 7, 4, 1, 7, 1, 1, 1, 13, 307, 1, 1, 1, 1, 1, 1, 100, 100, 95, 31, 100, 1, 93, 2260, 1, 1, 1, 1, 1, 1, 1, 1, 1, 4, 1, 6, 4, 7, 7, 2, 4, 1, 1, 1, 1, 1, 1, 1, 1, 18990, 1],
        "criteriaTimestamp": [1402506762000, 1460507687000, 1462414462000, 1467900265000, 1401406719000, 1401368002000, 1401406719000, 1402006824000, 1400904090000, 1413671880000, 1400904090000, 1400904090000, 1402506762000, 1432592727000, 1413671880000, 1403930817000, 1467900659000, 1467894957000, 1465802846000, 1467609583000, 1465695487000, 1461222179000, 1467241580000, 1467240697000, 1432592727000, 1459094988000, 1400904090000, 1402506762000, 1383438977000, 1400904090000, 1400281966000, 1467899490000, 1461970202000, 1420602827000, 1437857126000, 1458863551000, 1465229478000, 1437838144000, 1434052310000, 1449880623000, 1433040084000, 1416184650000, 1436644157000, 1437857126000, 1435107910000, 1417759167000, 1433825816000, 1432451723000, 1403453107000, 1400180536000, 1402444578000, 1449974381000, 1401926968000, 1450247013000, 1467048488000, 1400897135000, 1400902418000, 1425954361000, 1425977138000, 1425953365000, 1426063315000, 1425975839000, 1401340563000, 1425978591000, 1435685794000, 1419096125000, 1419099139000, 1419141695000, 1421014199000, 1419102542000, 1435236645000, 1433638879000, 1432744520000, 1420770496000, 1419583515000, 1461970202000, 1458045714000, 1458045714000, 1458045714000, 1458045714000, 1458045714000, 1457488330000, 1458045714000, 1458045714000, 1458045714000, 1458045714000, 1458045714000, 1458045714000, 1458045714000, 1458045714000, 1458045714000, 1458045714000, 1454891353000, 1454889162000, 1454894906000, 1454892249000, 1454892779000, 1454893591000, 1458422542000, 1460438998000, 1454890974000, 1435685794000, 1435199467000, 1467900028000, 1467895509000, 1467866461000, 1466991019000, 1450242500000, 1449972093000, 1467049989000, 1433648143000, 1467055640000, 1450578100000, 1450586050000, 1450414159000, 1467134639000, 1467132746000, 1466569854000, 1466569848000, 1462495487000, 1466571210000, 1456089150000, 1457486557000, 1462496562000, 1457485919000, 1462494296000, 1449801116000, 1449806192000, 1466569801000, 1464838688000, 1464827633000, 1454892249000, 1465072054000, 1454893591000, 1464831969000, 1464841153000, 1465071152000, 1458344889000, 1452832384000, 1408355034000, 1467346813000, 1467470201000, 1467774184000, 1467861432000, 1467161460000, 1466644836000, 1466726815000, 1466649625000, 1466814780000, 1466647768000, 1402384446000, 1401939149000, 1402384446000, 1402384446000, 1402384446000, 1402384446000, 1402384446000, 1402384446000, 1402384446000, 1467900117000, 1401406719000, 1401368002000, 1400050235000, 1383438980000, 1457751618000, 1450115404000, 1450115106000, 1453626972000, 1450134422000, 1450309568000, 1458456080000, 1418085981000, 1418193735000, 1453851910000, 1458369826000, 1432592727000, 1464924502000, 1455308647000, 1433638879000, 1432428021000, 1452832316000, 1432757274000, 1432485786000, 1438565666000, 1464823585000, 1433634481000, 1460544792000, 1456451081000, 1461153314000, 1455155447000, 1464392956000, 1451182134000, 1451161534000, 1455469670000, 1432537875000, 1432951676000, 1435451300000, 1419432076000, 1461931679000, 1460960826000, 1432532505000, 1450112637000, 1418084355000, 1451086551000, 1401924626000, 1435010382000, 1434486751000, 1433732762000, 1418592001000, 1467879331000, 1451193280000, 1435393821000, 1404221619000, 1432744520000, 1467857713000, 1467851068000, 1467831252000, 1467850415000, 1467877407000, 1467870586000, 1467866486000, 1467866402000, 1467850953000, 1467867434000, 1467870670000, 1467837895000, 1467870708000, 1467851060000, 1467833725000, 1467866524000, 1467879331000, 1467866612000, 1467877340000, 1467866650000, 1467867188000, 1467877379000, 1467840724000, 1467840820000, 1467831367000, 1467870482000, 1467840572000, 1467867194000, 1467866412000, 1467867460000, 1467867182000, 1467850940000, 1467879206000, 1467865890000, 1467867175000, 1467866050000, 1467877325000, 1467838933000, 1467866388000, 1467833692000, 1467850954000, 1467870481000, 1467850976000, 1467841776000, 1467849501000, 1399406744000, 1399406744000, 1399406744000, 1399406744000, 1399406744000, 1399406744000, 1465229478000, 1467510015000, 1462417499000, 1458863551000, 1464123842000, 1419266510000, 1467751598000, 1467894977000, 1467861277000, 1467862681000, 1467900712000, 1467074839000, 1467871488000, 1467592301000, 1467782521000, 1467885797000, 1402506762000, 1467851369000, 1467776077000, 1467159412000, 1467776077000, 1467074840000, 1402793599000, 1467074840000, 1403389669000, 1405794024000, 1402513397000, 1452047647000, 1402270008000, 1401958360000, 1400221590000, 1416366257000, 1439469446000, 1403431000000, 1434324853000, 1434324853000, 1403431000000, 1434324853000, 1403431000000, 1403431000000, 1458084800000, 1455645604000, 1464454094000, 1403431000000, 1464454094000, 1439469446000, 1403431000000, 1425447270000, 1439469446000, 1464454094000, 1439469446000, 1403431000000, 1440182535000, 1439469446000, 1403431000000, 1435533344000, 1403431000000, 1434324853000, 1439469446000, 1434324853000, 1404781884000, 1403431000000, 1439469446000, 1439469446000, 1439469446000, 1439469446000, 1403431000000, 1435275825000, 1416366257000, 1467074840000, 1464454094000, 1416366257000, 1439469446000, 1467074840000, 1434324853000, 1464574524000, 1434324853000, 1467074840000, 1435275825000, 1467074840000, 1464574524000, 1439469446000, 1403431000000, 1436310577000, 1464454094000, 1467074840000, 1466820689000, 1465523550000, 1433630731000, 1467837693000, 1467673715000, 1467849510000, 1467831391000, 1467841084000, 1467838790000, 1467777449000, 1467836236000, 1467816149000, 1467877403000, 1467831623000, 1467839605000, 1399180095000, 1448466995000, 1459222079000, 1455319138000, 1464414175000, 1462062043000, 1464578548000, 1454784485000, 1402804754000, 1465523105000, 1465523202000, 1465523360000, 1465524413000, 1466220969000, 1466221037000, 1466221182000, 1466221387000, 1466221476000, 1465522637000, 1466221476000, 1467782521000, 1467885797000, 1467861277000, 1467852681000, 1466221237000, 1465524413000, 1402806171000, 1401407629000, 1400795094000, 1401799091000, 1401799091000, 1401799091000, 1401799091000, 1401371916000, 1401799091000, 1401799091000, 1401799091000, 1401799091000, 1403431000000, 1416599620000, 1403431000000, 1415909490000, 1403431000000, 1397672146000, 1403228917000, 1454804283000, 1464797684000, 1464568328000, 1452050637000, 1451427523000, 1404823368000, 1452051885000, 1404864889000, 1465049293000, 1467056803000, 1466224820000, 1466224820000, 1466221477000, 1404303338000, 1467876818000, 1401837090000, 1401836023000, 1401837521000, 1401583141000, 1401145752000, 1400557962000, 1450218211000, 1440910175000, 1416189781000, 1403191447000, 1459465911000, 1425958268000, 1417240601000, 1467344137000, 1465523036000, 1421082535000, 1414353127000, 1414353127000, 1414353127000, 1421643110000, 1403414015000, 1450406100000, 1403414015000, 1467760477000, 1464649448000, 1467764180000, 1466914771000, 1467761982000, 1467780087000, 1452739870000, 1467580609000, 1455032072000, 1455032072000, 1455032072000, 1455032072000, 1455032072000, 1455032072000, 1454730787000, 1455032072000, 1467900151000, 1464500145000],
        "criteriaCreated": [1383438990000, 1383438990000, 1413411885000, 1383438990000, 1383438990000, 1383438990000, 1383438990000, 1383465894000, 1383438990000, 1383438990000, 1383438990000, 1383438990000, 1383438990000, 1383438990000, 1400050245000, 1400050245000, 1383438990000, 1383861743000, 1399642180000, 1403576058000, 1465695490000, 1461222193000, 1400995204000, 1439424140000, 1383438990000, 1383438990000, 1383438990000, 1383438990000, 1383438990000, 1383438990000, 1383438990000, 1383444080000, 1461970211000, 1420602834000, 1437857130000, 1458863559000, 1465229479000, 1401059414000, 1383514355000, 1383441310000, 1385352484000, 1396730866000, 1402012921000, 1383514355000, 1385092554000, 1383438631000, 1383438631000, 1383441310000, 1383438631000, 1400180542000, 1402444594000, 1449974381000, 1401926975000, 1450247026000, 1467048491000, 1400897144000, 1400902434000, 1425954361000, 1425977143000, 1425953375000, 1426063316000, 1425975851000, 1401340574000, 1425978594000, 1435685796000, 1419096126000, 1419099140000, 1419141697000, 1419193427000, 1419101263000, 1419489082000, 1420772639000, 1419097440000, 1419713651000, 1419221038000, 1461970211000, 1458045729000, 1458045729000, 1458045729000, 1458045729000, 1458045729000, 1457488346000, 1458045729000, 1458045729000, 1458045729000, 1458045729000, 1458045729000, 1458045729000, 1458045729000, 1458045729000, 1458045729000, 1458045729000, 1454891363000, 1454889163000, 1454894914000, 1454892249000, 1454892785000, 1454893606000, 1458422547000, 1460439000000, 1454890978000, 1435685796000, 1435199467000, 1434652683000, 1444272105000, 1401149423000, 1401162130000, 1449974381000, 1449972100000, 1467048491000, 1433648144000, 1401256979000, 1450578101000, 1426064969000, 1450414171000, 1467132096000, 1467132752000, 1466569860000, 1466569860000, 1456087933000, 1456088802000, 1456089154000, 1457486570000, 1456456454000, 1457485934000, 1457484213000, 1449801126000, 1449806208000, 1466569810000, 1464823488000, 1458366181000, 1454892249000, 1458418280000, 1454893606000, 1464803512000, 1458419679000, 1464806775000, 1458344892000, 1452228082000, 1406390885000, 1401383348000, 1401090032000, 1400079948000, 1400483785000, 1401389793000, 1460943739000, 1466646351000, 1461027367000, 1466729297000, 1460941031000, 1402384461000, 1401939163000, 1402384461000, 1402384461000, 1402384461000, 1402384461000, 1402384461000, 1402384461000, 1402384461000, 1383438696000, 1401406727000, 1383438990000, 1383438990000, 1383438990000, 1457751621000, 1450115404000, 1450115121000, 1450118006000, 1450134437000, 1450309574000, 1450143883000, 1418085990000, 1418164604000, 1418137525000, 1418161768000, 1418677522000, 1419835703000, 1402624673000, 1402614142000, 1402973638000, 1383438631000, 1419672871000, 1385352484000, 1402361804000, 1464823589000, 1400063469000, 1418010515000, 1456451084000, 1460209444000, 1455155448000, 1459639907000, 1451182136000, 1451161549000, 1455469679000, 1426297881000, 1385241300000, 1402244870000, 1419193427000, 1411259327000, 1385240579000, 1416179157000, 1450112651000, 1418084360000, 1451086567000, 1401924632000, 1383438631000, 1383438631000, 1383438631000, 1383438631000, 1383591316000, 1450125722000, 1433658192000, 1402328804000, 1403412363000, 1384573904000, 1384607149000, 1385328665000, 1384572843000, 1384573672000, 1384722193000, 1384573672000, 1384432277000, 1394213745000, 1384435660000, 1384437532000, 1384481321000, 1385179183000, 1384433750000, 1384433377000, 1383989615000, 1383990432000, 1384283203000, 1383990466000, 1383990415000, 1383989598000, 1384072444000, 1384283022000, 1384431970000, 1384283894000, 1383992779000, 1383991648000, 1384572497000, 1384722090000, 1383846335000, 1384481153000, 1383989581000, 1383988564000, 1383992546000, 1383990466000, 1383990566000, 1383988631000, 1384434057000, 1384479489000, 1394005425000, 1384479168000, 1395356871000, 1384481085000, 1384435677000, 1393754356000, 1399406754000, 1399406754000, 1399406754000, 1399406754000, 1399406754000, 1399406754000, 1465229479000, 1445209604000, 1437857130000, 1458863559000, 1420605304000, 1383439219000, 1383438990000, 1403393687000, 1420161190000, 1400751337000, 1383441261000, 1467074841000, 1402472286000, 1401304455000, 1402208845000, 1396109902000, 1383438990000, 1440211977000, 1400557976000, 1459562393000, 1448767720000, 1383876225000, 1383876225000, 1383876225000, 1383876225000, 1400221604000, 1383876225000, 1384062159000, 1383876225000, 1383876225000, 1383876225000, 1400221604000, 1383876225000, 1383876225000, 1383876225000, 1383876225000, 1383876225000, 1383876225000, 1384694535000, 1403431013000, 1455645605000, 1455645605000, 1388445178000, 1403431013000, 1434854393000, 1383876225000, 1383980059000, 1402792291000, 1383876225000, 1403811621000, 1383876225000, 1383935973000, 1402084101000, 1383876225000, 1383871965000, 1403811621000, 1383876225000, 1383876225000, 1403431013000, 1383876225000, 1401860320000, 1383876225000, 1383876225000, 1383876225000, 1393572050000, 1383876225000, 1403431013000, 1383876225000, 1398119999000, 1401289359000, 1383876225000, 1401957299000, 1383876225000, 1393898960000, 1383876225000, 1383876225000, 1403431013000, 1461296395000, 1386097676000, 1400530778000, 1464574526000, 1388507640000, 1400530778000, 1404234877000, 1388455209000, 1416366268000, 1466643193000, 1465523556000, 1419159024000, 1393787923000, 1394264967000, 1383991531000, 1384479472000, 1384071385000, 1400621629000, 1400552228000, 1400682078000, 1400531705000, 1399181151000, 1399180271000, 1400879809000, 1399180101000, 1418657761000, 1399960528000, 1418434672000, 1431745388000, 1434703787000, 1461384914000, 1384475921000, 1400796391000, 1465523105000, 1465523205000, 1465523373000, 1465524423000, 1466220970000, 1466221054000, 1466221188000, 1466221390000, 1466221490000, 1465522650000, 1466221490000, 1453593130000, 1396803368000, 1420265327000, 1402340662000, 1466221238000, 1465524423000, 1401338409000, 1401407639000, 1400795096000, 1401799104000, 1401799104000, 1401799104000, 1401799104000, 1401371930000, 1401799104000, 1401799104000, 1401799104000, 1401799104000, 1384194824000, 1384476323000, 1384584099000, 1403431013000, 1400527336000, 1384440379000, 1383876225000, 1454787339000, 1416537651000, 1452302362000, 1401938471000, 1451427536000, 1404823378000, 1451871767000, 1404358884000, 1465049304000, 1401371000000, 1466224823000, 1466224823000, 1466221490000, 1400557976000, 1456086008000, 1401837104000, 1401836034000, 1401837536000, 1401583146000, 1401145764000, 1400557976000, 1450218213000, 1418108705000, 1416026397000, 1403049613000, 1459465915000, 1425958281000, 1417218880000, 1383531045000, 1465523039000, 1421082538000, 1414353143000, 1414353143000, 1414353143000, 1421643122000, 1403414015000, 1450406111000, 1403414015000, 1465199836000, 1464649448000, 1454903319000, 1448770961000, 1452741118000, 1449199497000, 1452570473000, 1454899641000, 1455032075000, 1455032075000, 1455032075000, 1455032075000, 1455032075000, 1455032075000, 1454730795000, 1455032075000, 1426241323000, 1464500155000]
    },
    "emblem": {
        "icon": 40,
        "iconColor": "ffb1b8b1",
        "border": 4,
        "borderColor": "ff006793",
        "backgroundColor": "ff232323"
    },
    "challenge": [{
        "realm": {
            "name": "Draenor",
            "slug": "draenor",
            "battlegroup": "Cyclone",
            "locale": "en_US",
            "timezone": "America/Los_Angeles",
            "connected_realms": ["draenor", "echo-isles"]
        },
        "map": {
            "id": 1182,
            "name": "Auchindoun",
            "slug": "auchindoun",
            "hasChallengeMode": true,
            "bronzeCriteria": {
                "time": 3300000,
                "hours": 0,
                "minutes": 55,
                "seconds": 0,
                "milliseconds": 0,
                "isPositive": true
            },
            "silverCriteria": {
                "time": 1920000,
                "hours": 0,
                "minutes": 32,
                "seconds": 0,
                "milliseconds": 0,
                "isPositive": true
            },
            "goldCriteria": {
                "time": 1140000,
                "hours": 0,
                "minutes": 19,
                "seconds": 0,
                "milliseconds": 0,
                "isPositive": true
            }
        },
        "groups": []
    }, {
        "realm": {
            "name": "Draenor",
            "slug": "draenor",
            "battlegroup": "Cyclone",
            "locale": "en_US",
            "timezone": "America/Los_Angeles",
            "connected_realms": ["draenor", "echo-isles"]
        },
        "map": {
            "id": 1175,
            "name": "Bloodmaul Slag Mines",
            "slug": "bloodmaul-slag-mines",
            "hasChallengeMode": true,
            "bronzeCriteria": {
                "time": 3600000,
                "hours": 1,
                "minutes": 0,
                "seconds": 0,
                "milliseconds": 0,
                "isPositive": true
            },
            "silverCriteria": {
                "time": 2100000,
                "hours": 0,
                "minutes": 35,
                "seconds": 0,
                "milliseconds": 0,
                "isPositive": true
            },
            "goldCriteria": {
                "time": 1320000,
                "hours": 0,
                "minutes": 22,
                "seconds": 0,
                "milliseconds": 0,
                "isPositive": true
            }
        },
        "groups": []
    }, {
        "realm": {
            "name": "Draenor",
            "slug": "draenor",
            "battlegroup": "Cyclone",
            "locale": "en_US",
            "timezone": "America/Los_Angeles",
            "connected_realms": ["draenor", "echo-isles"]
        },
        "map": {
            "id": 962,
            "name": "Gate of the Setting Sun",
            "slug": "gate-of-the-setting-sun",
            "hasChallengeMode": true,
            "bronzeCriteria": {
                "time": 2700000,
                "hours": 0,
                "minutes": 45,
                "seconds": 0,
                "milliseconds": 0,
                "isPositive": true
            },
            "silverCriteria": {
                "time": 1320000,
                "hours": 0,
                "minutes": 22,
                "seconds": 0,
                "milliseconds": 0,
                "isPositive": true
            },
            "goldCriteria": {
                "time": 780000,
                "hours": 0,
                "minutes": 13,
                "seconds": 0,
                "milliseconds": 0,
                "isPositive": true
            }
        },
        "groups": []
    }, {
        "realm": {
            "name": "Draenor",
            "slug": "draenor",
            "battlegroup": "Cyclone",
            "locale": "en_US",
            "timezone": "America/Los_Angeles",
            "connected_realms": ["draenor", "echo-isles"]
        },
        "map": {
            "id": 1208,
            "name": "Grimrail Depot",
            "slug": "grimrail-depot",
            "hasChallengeMode": true,
            "bronzeCriteria": {
                "time": 3000000,
                "hours": 0,
                "minutes": 50,
                "seconds": 0,
                "milliseconds": 0,
                "isPositive": true
            },
            "silverCriteria": {
                "time": 1500000,
                "hours": 0,
                "minutes": 25,
                "seconds": 0,
                "milliseconds": 0,
                "isPositive": true
            },
            "goldCriteria": {
                "time": 870000,
                "hours": 0,
                "minutes": 14,
                "seconds": 30,
                "milliseconds": 0,
                "isPositive": true
            }
        },
        "groups": []
    }, {
        "realm": {
            "name": "Draenor",
            "slug": "draenor",
            "battlegroup": "Cyclone",
            "locale": "en_US",
            "timezone": "America/Los_Angeles",
            "connected_realms": ["draenor", "echo-isles"]
        },
        "map": {
            "id": 1195,
            "name": "Iron Docks",
            "slug": "iron-docks",
            "hasChallengeMode": true,
            "bronzeCriteria": {
                "time": 3600000,
                "hours": 1,
                "minutes": 0,
                "seconds": 0,
                "milliseconds": 0,
                "isPositive": true
            },
            "silverCriteria": {
                "time": 2040000,
                "hours": 0,
                "minutes": 34,
                "seconds": 0,
                "milliseconds": 0,
                "isPositive": true
            },
            "goldCriteria": {
                "time": 1200000,
                "hours": 0,
                "minutes": 20,
                "seconds": 0,
                "milliseconds": 0,
                "isPositive": true
            }
        },
        "groups": []
    }, {
        "realm": {
            "name": "Draenor",
            "slug": "draenor",
            "battlegroup": "Cyclone",
            "locale": "en_US",
            "timezone": "America/Los_Angeles",
            "connected_realms": ["draenor", "echo-isles"]
        },
        "map": {
            "id": 994,
            "name": "Mogu'shan Palace",
            "slug": "mogushan-palace",
            "hasChallengeMode": true,
            "bronzeCriteria": {
                "time": 2700000,
                "hours": 0,
                "minutes": 45,
                "seconds": 0,
                "milliseconds": 0,
                "isPositive": true
            },
            "silverCriteria": {
                "time": 1440000,
                "hours": 0,
                "minutes": 24,
                "seconds": 0,
                "milliseconds": 0,
                "isPositive": true
            },
            "goldCriteria": {
                "time": 720000,
                "hours": 0,
                "minutes": 12,
                "seconds": 0,
                "milliseconds": 0,
                "isPositive": true
            }
        },
        "groups": []
    }, {
        "realm": {
            "name": "Draenor",
            "slug": "draenor",
            "battlegroup": "Cyclone",
            "locale": "en_US",
            "timezone": "America/Los_Angeles",
            "connected_realms": ["draenor", "echo-isles"]
        },
        "map": {
            "id": 1001,
            "name": "Scarlet Halls",
            "slug": "scarlet-halls",
            "hasChallengeMode": true,
            "bronzeCriteria": {
                "time": 2700000,
                "hours": 0,
                "minutes": 45,
                "seconds": 0,
                "milliseconds": 0,
                "isPositive": true
            },
            "silverCriteria": {
                "time": 1320000,
                "hours": 0,
                "minutes": 22,
                "seconds": 0,
                "milliseconds": 0,
                "isPositive": true
            },
            "goldCriteria": {
                "time": 780000,
                "hours": 0,
                "minutes": 13,
                "seconds": 0,
                "milliseconds": 0,
                "isPositive": true
            }
        },
        "groups": []
    }, {
        "realm": {
            "name": "Draenor",
            "slug": "draenor",
            "battlegroup": "Cyclone",
            "locale": "en_US",
            "timezone": "America/Los_Angeles",
            "connected_realms": ["draenor", "echo-isles"]
        },
        "map": {
            "id": 1004,
            "name": "Scarlet Monastery",
            "slug": "scarlet-monastery",
            "hasChallengeMode": true,
            "bronzeCriteria": {
                "time": 2700000,
                "hours": 0,
                "minutes": 45,
                "seconds": 0,
                "milliseconds": 0,
                "isPositive": true
            },
            "silverCriteria": {
                "time": 1320000,
                "hours": 0,
                "minutes": 22,
                "seconds": 0,
                "milliseconds": 0,
                "isPositive": true
            },
            "goldCriteria": {
                "time": 780000,
                "hours": 0,
                "minutes": 13,
                "seconds": 0,
                "milliseconds": 0,
                "isPositive": true
            }
        },
        "groups": []
    }, {
        "realm": {
            "name": "Draenor",
            "slug": "draenor",
            "battlegroup": "Cyclone",
            "locale": "en_US",
            "timezone": "America/Los_Angeles",
            "connected_realms": ["draenor", "echo-isles"]
        },
        "map": {
            "id": 1007,
            "name": "Scholomance",
            "slug": "scholomance",
            "hasChallengeMode": true,
            "bronzeCriteria": {
                "time": 3300000,
                "hours": 0,
                "minutes": 55,
                "seconds": 0,
                "milliseconds": 0,
                "isPositive": true
            },
            "silverCriteria": {
                "time": 1980000,
                "hours": 0,
                "minutes": 33,
                "seconds": 0,
                "milliseconds": 0,
                "isPositive": true
            },
            "goldCriteria": {
                "time": 1140000,
                "hours": 0,
                "minutes": 19,
                "seconds": 0,
                "milliseconds": 0,
                "isPositive": true
            }
        },
        "groups": []
    }, {
        "realm": {
            "name": "Draenor",
            "slug": "draenor",
            "battlegroup": "Cyclone",
            "locale": "en_US",
            "timezone": "America/Los_Angeles",
            "connected_realms": ["draenor", "echo-isles"]
        },
        "map": {
            "id": 959,
            "name": "Shado-Pan Monastery",
            "slug": "shadopan-monastery",
            "hasChallengeMode": true,
            "bronzeCriteria": {
                "time": 3600000,
                "hours": 1,
                "minutes": 0,
                "seconds": 0,
                "milliseconds": 0,
                "isPositive": true
            },
            "silverCriteria": {
                "time": 2100000,
                "hours": 0,
                "minutes": 35,
                "seconds": 0,
                "milliseconds": 0,
                "isPositive": true
            },
            "goldCriteria": {
                "time": 1260000,
                "hours": 0,
                "minutes": 21,
                "seconds": 0,
                "milliseconds": 0,
                "isPositive": true
            }
        },
        "groups": []
    }, {
        "realm": {
            "name": "Draenor",
            "slug": "draenor",
            "battlegroup": "Cyclone",
            "locale": "en_US",
            "timezone": "America/Los_Angeles",
            "connected_realms": ["draenor", "echo-isles"]
        },
        "map": {
            "id": 1176,
            "name": "Shadowmoon Burial Grounds",
            "slug": "shadowmoon-burial-grounds",
            "hasChallengeMode": true,
            "bronzeCriteria": {
                "time": 3600000,
                "hours": 1,
                "minutes": 0,
                "seconds": 0,
                "milliseconds": 0,
                "isPositive": true
            },
            "silverCriteria": {
                "time": 1800000,
                "hours": 0,
                "minutes": 30,
                "seconds": 0,
                "milliseconds": 0,
                "isPositive": true
            },
            "goldCriteria": {
                "time": 1050000,
                "hours": 0,
                "minutes": 17,
                "seconds": 30,
                "milliseconds": 0,
                "isPositive": true
            }
        },
        "groups": []
    }, {
        "realm": {
            "name": "Draenor",
            "slug": "draenor",
            "battlegroup": "Cyclone",
            "locale": "en_US",
            "timezone": "America/Los_Angeles",
            "connected_realms": ["draenor", "echo-isles"]
        },
        "map": {
            "id": 1011,
            "name": "Siege of Niuzao Temple",
            "slug": "siege-of-niuzao-temple",
            "hasChallengeMode": true,
            "bronzeCriteria": {
                "time": 3000000,
                "hours": 0,
                "minutes": 50,
                "seconds": 0,
                "milliseconds": 0,
                "isPositive": true
            },
            "silverCriteria": {
                "time": 1800000,
                "hours": 0,
                "minutes": 30,
                "seconds": 0,
                "milliseconds": 0,
                "isPositive": true
            },
            "goldCriteria": {
                "time": 1050000,
                "hours": 0,
                "minutes": 17,
                "seconds": 30,
                "milliseconds": 0,
                "isPositive": true
            }
        },
        "groups": []
    }, {
        "realm": {
            "name": "Draenor",
            "slug": "draenor",
            "battlegroup": "Cyclone",
            "locale": "en_US",
            "timezone": "America/Los_Angeles",
            "connected_realms": ["draenor", "echo-isles"]
        },
        "map": {
            "id": 1209,
            "name": "Skyreach",
            "slug": "skyreach",
            "hasChallengeMode": true,
            "bronzeCriteria": {
                "time": 3400000,
                "hours": 0,
                "minutes": 56,
                "seconds": 40,
                "milliseconds": 0,
                "isPositive": true
            },
            "silverCriteria": {
                "time": 1700000,
                "hours": 0,
                "minutes": 28,
                "seconds": 20,
                "milliseconds": 0,
                "isPositive": true
            },
            "goldCriteria": {
                "time": 1020000,
                "hours": 0,
                "minutes": 17,
                "seconds": 0,
                "milliseconds": 0,
                "isPositive": true
            }
        },
        "groups": []
    }, {
        "realm": {
            "name": "Draenor",
            "slug": "draenor",
            "battlegroup": "Cyclone",
            "locale": "en_US",
            "timezone": "America/Los_Angeles",
            "connected_realms": ["draenor", "echo-isles"]
        },
        "map": {
            "id": 961,
            "name": "Stormstout Brewery",
            "slug": "stormstout-brewery",
            "hasChallengeMode": true,
            "bronzeCriteria": {
                "time": 2700000,
                "hours": 0,
                "minutes": 45,
                "seconds": 0,
                "milliseconds": 0,
                "isPositive": true
            },
            "silverCriteria": {
                "time": 1260000,
                "hours": 0,
                "minutes": 21,
                "seconds": 0,
                "milliseconds": 0,
                "isPositive": true
            },
            "goldCriteria": {
                "time": 720000,
                "hours": 0,
                "minutes": 12,
                "seconds": 0,
                "milliseconds": 0,
                "isPositive": true
            }
        },
        "groups": []
    }, {
        "realm": {
            "name": "Draenor",
            "slug": "draenor",
            "battlegroup": "Cyclone",
            "locale": "en_US",
            "timezone": "America/Los_Angeles",
            "connected_realms": ["draenor", "echo-isles"]
        },
        "map": {
            "id": 960,
            "name": "Temple of the Jade Serpent",
            "slug": "temple-of-the-jade-serpent",
            "hasChallengeMode": true,
            "bronzeCriteria": {
                "time": 2700000,
                "hours": 0,
                "minutes": 45,
                "seconds": 0,
                "milliseconds": 0,
                "isPositive": true
            },
            "silverCriteria": {
                "time": 1500000,
                "hours": 0,
                "minutes": 25,
                "seconds": 0,
                "milliseconds": 0,
                "isPositive": true
            },
            "goldCriteria": {
                "time": 900000,
                "hours": 0,
                "minutes": 15,
                "seconds": 0,
                "milliseconds": 0,
                "isPositive": true
            }
        },
        "groups": []
    }, {
        "realm": {
            "name": "Draenor",
            "slug": "draenor",
            "battlegroup": "Cyclone",
            "locale": "en_US",
            "timezone": "America/Los_Angeles",
            "connected_realms": ["draenor", "echo-isles"]
        },
        "map": {
            "id": 1279,
            "name": "The Everbloom",
            "slug": "the-everbloom",
            "hasChallengeMode": true,
            "bronzeCriteria": {
                "time": 3600000,
                "hours": 1,
                "minutes": 0,
                "seconds": 0,
                "milliseconds": 0,
                "isPositive": true
            },
            "silverCriteria": {
                "time": 1800000,
                "hours": 0,
                "minutes": 30,
                "seconds": 0,
                "milliseconds": 0,
                "isPositive": true
            },
            "goldCriteria": {
                "time": 1050000,
                "hours": 0,
                "minutes": 17,
                "seconds": 30,
                "milliseconds": 0,
                "isPositive": true
            }
        },
        "groups": []
    }, {
        "realm": {
            "name": "Draenor",
            "slug": "draenor",
            "battlegroup": "Cyclone",
            "locale": "en_US",
            "timezone": "America/Los_Angeles",
            "connected_realms": ["draenor", "echo-isles"]
        },
        "map": {
            "id": 1358,
            "name": "Upper Blackrock Spire",
            "slug": "upper-blackrock-spire",
            "hasChallengeMode": true,
            "bronzeCriteria": {
                "time": 5100000,
                "hours": 1,
                "minutes": 25,
                "seconds": 0,
                "milliseconds": 0,
                "isPositive": true
            },
            "silverCriteria": {
                "time": 2580000,
                "hours": 0,
                "minutes": 43,
                "seconds": 0,
                "milliseconds": 0,
                "isPositive": true
            },
            "goldCriteria": {
                "time": 1500000,
                "hours": 0,
                "minutes": 25,
                "seconds": 0,
                "milliseconds": 0,
                "isPositive": true
            }
        },
        "groups": []
    }]
}